Division,WeightClassKg,Place,Name,Team,BodyweightKg,Best3SquatKg,Best3BenchKg,Best3DeadliftKg,TotalKg,Equipment,Event,Sex
Girls,47.85,1,Perla Hernandez,Brownsville Pace,47.58,106.59,43.09,106.59,256.28,Single-ply,SBD,F
Girls,47.85,2,Alexis Rivas #2,Brownsville Lopez,47.72,108.86,45.36,102.06,256.28,Single-ply,SBD,F
Girls,47.85,3,Esmeralda Saldana,Brownsville Lopez,46.45,92.99,36.29,113.4,242.67,Single-ply,SBD,F
Girls,47.85,4,Noemi Adame,Brownsville Porter,45.68,88.45,29.48,92.99,210.92,Single-ply,SBD,F
Girls,47.85,5,Alysha Alvarez,Edinburg Vela,47.17,63.5,49.9,88.45,201.85,Single-ply,SBD,F
Girls,47.85,6,Dora Lee Turner,Port Isabel,45.86,52.16,29.48,61.23,142.88,Single-ply,SBD,F
Girls,47.85,7,Irma Vela,McAllen Rowe,47.67,38.56,24.95,61.23,124.74,Single-ply,SBD,F
Girls,47.85,DQ,Alexa Alaniz,Brownsville Hanna,46.18,,,,,Single-ply,SBD,F
Girls,51.94,1,Klarissa Gonzalez,San Benito,51.26,133.81,79.38,133.81,347,Single-ply,SBD,F
Girls,51.94,2,Marie Cavazos,Edinburg Vela,50.39,138.35,52.16,124.74,315.25,Single-ply,SBD,F
Girls,51.94,3,Mandy Sanchez,Los Fresnos,50.48,133.81,52.16,115.67,301.64,Single-ply,SBD,F
Girls,51.94,4,Ianelle Aguilar,Los Fresnos,50.48,111.13,52.16,104.33,267.62,Single-ply,SBD,F
Girls,51.94,5,Alejandra Escandon,Brownsville Hanna,50.76,106.59,47.63,108.86,263.08,Single-ply,SBD,F
Girls,51.94,6,Evelyn Barajas,Brownsville Lopez,50.03,111.13,45.36,99.79,256.28,Single-ply,SBD,F
Girls,51.94,7,Jacqueline Escobar,PSJA North,51.75,102.06,49.9,102.06,254.01,Single-ply,SBD,F
Girls,51.94,8,Stephanie Ray,Brownsville Veterans Memorial,51.48,95.25,40.82,106.59,242.67,Single-ply,SBD,F
Girls,51.94,9,Alyssa Tovar,Rio Hondo,48.08,92.99,45.36,102.06,240.4,Single-ply,SBD,F
Girls,51.94,10,Anallanci Vera,PSJA North,49.49,97.52,38.56,102.06,238.14,Single-ply,SBD,F
Girls,51.94,11,Vanessa Aboytes,Rio Hondo,51.75,79.38,43.09,99.79,222.26,Single-ply,SBD,F
Girls,51.94,12,Alexandria Canchola,McAllen,49.49,81.65,40.82,90.72,213.19,Single-ply,SBD,F
Girls,51.94,13,Sandy Mendoza,Brownsville Porter,48.94,83.91,36.29,83.91,204.12,Single-ply,SBD,F
Girls,51.94,14,Jackie Del Molino,Brownsville Veterans Memorial,49.17,77.11,29.48,86.18,192.78,Single-ply,SBD,F
Girls,51.94,15,Valeria Ledesma,PSJA North,49.67,70.31,24.95,79.38,174.63,Single-ply,SBD,F
Girls,51.94,DQ,Bianca Reyes,Los Fresnos,51.66,122.47,49.9,,,Single-ply,SBD,F
Girls,56.02,1,Brianna Ruiz,Los Fresnos,55.07,131.54,56.7,124.74,312.98,Single-ply,SBD,F
Girls,56.02,2,Tamara Guerrero,Brownsville Hanna,55.97,136.08,47.63,124.74,308.44,Single-ply,SBD,F
Girls,56.02,3,Summer Sosa,Los Fresnos,54.66,122.47,52.16,131.54,306.17,Single-ply,SBD,F
Girls,56.02,4,Stephanie Garcia,Brownsville Lopez,54.98,124.74,49.9,111.13,285.76,Single-ply,SBD,F
Girls,56.02,5,Kelsey Elizondo,PSJA North,55.07,113.4,43.09,129.27,285.76,Single-ply,SBD,F
Girls,56.02,6,Demi Ibarra,Brownsville Pace,55.07,120.2,34.02,113.4,267.62,Single-ply,SBD,F
Girls,56.02,7,Beatriz Zapata,Brownsville Pace,55.38,104.33,40.82,122.47,267.62,Single-ply,SBD,F
Girls,56.02,8,Brittney Soliz,Edinburg Vela,54.07,97.52,54.43,106.59,258.55,Single-ply,SBD,F
Girls,56.02,9,Juliette Cantu,Edinburg Vela,54.16,102.06,49.9,102.06,254.01,Single-ply,SBD,F
Girls,56.02,10,Miya Whittington,Port Isabel,55.38,88.45,49.9,102.06,240.4,Single-ply,SBD,F
Girls,56.02,11,Kenedie Casares,Edinburg Vela,53.66,83.91,54.43,97.52,235.87,Single-ply,SBD,F
Girls,56.02,12,Deisy Moreno,Brownsville Pace,53.66,77.11,31.75,92.99,201.85,Single-ply,SBD,F
Girls,56.02,13,Julietta Montalvo,Brownsville Veterans Memorial,54.98,63.5,36.29,77.11,176.9,Single-ply,SBD,F
Girls,56.02,14,Desma Palacios,Edinburg Idea College Prep,55.38,61.23,27.22,74.84,163.29,Single-ply,SBD,F
Girls,56.02,DQ,Daesha Cano,PSJA North,55.79,,,,,Single-ply,SBD,F
Girls,60.1,1,Sofia Cruz,Brownsville Hanna,60.06,142.88,61.23,138.35,342.46,Single-ply,SBD,F
Girls,60.1,2,Gabriela De La Rosa,Edinburg Vela,59.69,120.2,74.84,124.74,319.78,Single-ply,SBD,F
Girls,60.1,3,Bella Vargas,Los Fresnos,58.38,122.47,72.57,120.2,315.25,Single-ply,SBD,F
Girls,60.1,4,Suzy Martinez,Brownsville Veterans Memorial,56.97,99.79,52.16,133.81,285.76,Single-ply,SBD,F
Girls,60.1,5,Gloria Saldana,Brownsville Pace,58.88,113.4,49.9,113.4,276.69,Single-ply,SBD,F
Girls,60.1,6,Joanna Rodriguez,Brownsville Pace,59.47,115.67,45.36,111.13,272.16,Single-ply,SBD,F
Girls,60.1,7,Tanija Barbarena,Port Isabel,57.47,104.33,52.16,113.4,269.89,Single-ply,SBD,F
Girls,60.1,8,Steffi Olivarez,Edinburg Vela,57.29,97.52,45.36,113.4,256.28,Single-ply,SBD,F
Girls,60.1,9,Anna Delgado,Port Isabel,56.79,92.99,49.9,104.33,247.21,Single-ply,SBD,F
Girls,60.1,10,Leanna Gonzalez,Rio Hondo,58.88,83.91,47.63,106.59,238.14,Single-ply,SBD,F
Girls,60.1,11,Nasay Herbert,Brownsville Porter,59.06,92.99,38.56,106.59,238.14,Single-ply,SBD,F
Girls,60.1,12,Abigail Saenz,PSJA North,59.87,83.91,47.63,102.06,233.6,Single-ply,SBD,F
Girls,60.1,13,Ashley Garza,Brownsville Pace,57.56,88.45,47.63,88.45,224.53,Single-ply,SBD,F
Girls,60.1,14,Lali Saldana,Rio Hondo,59.19,83.91,34.02,102.06,219.99,Single-ply,SBD,F
Girls,60.1,15,Aylin Rocillo,Edinburg Idea College Prep,56.7,61.23,34.02,74.84,170.1,Single-ply,SBD,F
Girls,60.1,DQ,Cassandra Perez,San Benito,59.69,,,,,Single-ply,SBD,F
Girls,67.36,1,Lisbeth Gonzalez,San Benito,65.5,154.22,70.31,156.49,381.02,Single-ply,SBD,F
Girls,67.36,2,Denice Acosta,San Benito,65.59,154.22,72.57,151.95,378.75,Single-ply,SBD,F
Girls,67.36,3,Marisol Pulido,Brownsville Lopez,62.82,149.69,63.5,149.69,362.87,Single-ply,SBD,F
Girls,67.36,4,Sydney Wall,Los Fresnos,65.18,142.88,70.31,136.08,349.27,Single-ply,SBD,F
Girls,67.36,5,Alexis Quezada,Los Fresnos,67,147.42,61.23,138.35,347,Single-ply,SBD,F
Girls,67.36,6,Jennifer Cisneros,Brownsville Lopez,66.04,120.2,52.16,127.01,299.37,Single-ply,SBD,F
Girls,67.36,7,Ely Perez,Brownsville Hanna,65.68,120.2,47.63,106.59,274.42,Single-ply,SBD,F
Girls,67.36,8,Joanna Trujillo,Brownsville Porter,61.19,120.2,34.02,104.33,258.55,Single-ply,SBD,F
Girls,67.36,9,Erin Quiroz,Edinburg Vela,61.37,92.99,45.36,115.67,254.01,Single-ply,SBD,F
Girls,67.36,10,Santy Villea,PSJA North,66.09,104.33,43.09,102.06,249.48,Single-ply,SBD,F
Girls,67.36,11,Keiry Miller,PSJA North,65.18,97.52,36.29,99.79,233.6,Single-ply,SBD,F
Girls,67.36,12,Alexa Garcia,Edinburg Vela,62.37,77.11,56.7,86.18,219.99,Single-ply,SBD,F
Girls,67.36,13,Ashley Galloway,McAllen Rowe,67.27,72.57,47.63,92.99,213.19,Single-ply,SBD,F
Girls,67.36,14,Cecilia Delgado,Brownsville Veterans Memorial,62.87,79.38,29.48,88.45,197.31,Single-ply,SBD,F
Girls,67.36,15,Amanda Ramos,Brownsville Veterans Memorial,61.19,77.11,36.29,77.11,190.51,Single-ply,SBD,F
Girls,67.36,16,Monica Pensado,Brownsville Veterans Memorial,65,77.11,34.02,79.38,190.51,Single-ply,SBD,F
Girls,67.36,17,Alisha Galvan,Santa Rosa,64.36,61.23,34.02,70.31,165.56,Single-ply,SBD,F
Girls,67.36,18,Katherine Cardenas,McAllen,64.27,52.16,38.56,61.23,151.95,Single-ply,SBD,F
Girls,75.07,1,LeAnn Ramirez,San Benito,74.48,183.7,72.57,124.74,381.02,Single-ply,SBD,F
Girls,75.07,2,Krista Figueroa,Brownsville Hanna,71.49,149.69,61.23,127.01,337.93,Single-ply,SBD,F
Girls,75.07,3,Melaine Quintero,Brownsville Lopez,74.48,142.88,54.43,138.35,335.66,Single-ply,SBD,F
Girls,75.07,4,Teresa Hernandez,Brownsville Lopez,74.16,120.2,54.43,115.67,290.3,Single-ply,SBD,F
Girls,75.07,5,Jaslyn Olivarez,McAllen,69.76,120.2,58.97,108.86,288.03,Single-ply,SBD,F
Girls,75.07,6,Vanessa Ybarra,Port Isabel,71.08,113.4,56.7,113.4,283.5,Single-ply,SBD,F
Girls,75.07,7,Sarah Salinas,McAllen Memorial,74.07,115.67,56.7,108.86,281.23,Single-ply,SBD,F
Girls,75.07,8,Alexis Alaniz,Brownsville Hanna,70.08,111.13,54.43,102.06,267.62,Single-ply,SBD,F
Girls,75.07,9,Mia Murphy,McAllen Rowe,70.9,102.06,54.43,106.59,263.08,Single-ply,SBD,F
Girls,75.07,10,Vanessa Ravell,Brownsville Porter,71.17,127.01,40.82,95.25,263.08,Single-ply,SBD,F
Girls,75.07,11,Mikayla Snyder,Port Isabel,71.21,99.79,47.63,102.06,249.48,Single-ply,SBD,F
Girls,75.07,12,Maria Forina,McAllen Rowe,72.26,90.72,38.56,102.06,231.33,Single-ply,SBD,F
Girls,75.07,13,Valeria Olmeda,McAllen,70.08,111.13,38.56,79.38,229.06,Single-ply,SBD,F
Girls,75.07,DQ,Isabela Luera,McAllen,68.36,117.93,,,,Single-ply,SBD,F
Girls,82.33,1,Adriana Valerio,Brownsville Pace,81.56,142.88,52.16,142.88,337.93,Single-ply,SBD,F
Girls,82.33,2,Jennifer Saldana,Brownsville Lopez,81.78,138.35,68.04,129.27,335.66,Single-ply,SBD,F
Girls,82.33,3,Anyssa Barrientes,Rio Hondo,78.47,129.27,54.43,142.88,326.59,Single-ply,SBD,F
Girls,82.33,4,Candie Camarillo,PSJA North,80.06,113.4,54.43,122.47,290.3,Single-ply,SBD,F
Girls,82.33,5,Priscilla Acosta,McAllen Rowe,81.56,111.13,65.77,108.86,285.76,Single-ply,SBD,F
Girls,82.33,6,Audrey Martinez,Port Isabel,82.19,108.86,49.9,99.79,258.55,Single-ply,SBD,F
Girls,82.33,7,Kassandra Rodriguez,McAllen,79.56,92.99,61.23,92.99,247.21,Single-ply,SBD,F
Girls,82.33,8,Brittany Barrer,Brownsville Porter,79.79,97.52,34.02,104.33,235.87,Single-ply,SBD,F
Girls,82.33,9,Esly Escanuela,Santa Rosa,81.78,88.45,36.29,88.45,213.19,Single-ply,SBD,F
Girls,82.33,DQ,Julie Rivera,La Villa,81.87,56.7,,,,Single-ply,SBD,F
Girls,82.33,DQ,Rose Mary Reyna,San Benito,80.2,151.95,,,,Single-ply,SBD,F
Girls,90.04,1,Maya Perez,Brownsville Hanna,85.87,170.1,70.31,147.42,387.82,Single-ply,SBD,F
Girls,90.04,2,Kassie Lopez,Brownsville Porter,87.18,138.35,61.23,136.08,335.66,Single-ply,SBD,F
Girls,90.04,3,Daliliah Sanchez,Rio Hondo,86.68,129.27,61.23,136.08,326.59,Single-ply,SBD,F
Girls,90.04,4,Adelina Quintana,Rio Hondo,89.36,120.2,52.16,115.67,288.03,Single-ply,SBD,F
Girls,90.04,5,Olivia Mata,McAllen,86.59,106.59,61.23,111.13,278.96,Single-ply,SBD,F
Girls,90.04,6,Victoria Barrera,Port Isabel,86.09,120.2,47.63,108.86,276.69,Single-ply,SBD,F
Girls,90.04,7,Ianelly Garza,Brownsville Porter,88.77,127.01,36.29,104.33,267.62,Single-ply,SBD,F
Girls,90.04,8,Litzy Cantu,Brownsville Veterans Memorial,84.46,86.18,52.16,102.06,240.4,Single-ply,SBD,F
Girls,90.04,DQ,April Mata,San Benito,87.36,,,,,Single-ply,SBD,F
Girls,90.04,DQ,Genesis Gonzalez,Brownsville Pace,88.68,108.86,45.36,,,Single-ply,SBD,F
Girls,90.04,DQ,Angelina Young,Edinburg Vela,89.36,120.2,61.23,,,Single-ply,SBD,F
Girls,100.02,1,Blanca Gonzalez,Brownsville Pace,98.47,149.69,61.23,149.69,360.61,Single-ply,SBD,F
Girls,100.02,2,Brandy Gonzalez,Rio Hondo,98.97,133.81,63.5,111.13,308.44,Single-ply,SBD,F
Girls,100.02,3,Casey Najar,Rio Hondo,94.66,122.47,49.9,113.4,285.76,Single-ply,SBD,F
Girls,100.02,4,Angelica Lozano,McAllen Rowe,95.98,102.06,61.23,120.2,283.5,Single-ply,SBD,F
Girls,100.02,5,Nicole Ozuna,Edinburg Vela,90.49,83.91,70.31,83.91,238.14,Single-ply,SBD,F
Girls,100.02+,1,Soledad Villarreal,San Benito,116.57,238.14,124.74,154.22,517.1,Single-ply,SBD,F
Girls,100.02+,2,Lupita Lerma,San Benito,104.1,195.04,88.45,147.42,430.91,Single-ply,SBD,F
Girls,100.02+,3,Amanda Garcia,Brownsville Hanna,108.5,181.44,79.38,142.88,403.7,Single-ply,SBD,F
Girls,100.02+,4,Edna Rodriguez,PSJA North,103.06,145.15,63.5,140.61,349.27,Single-ply,SBD,F
Girls,100.02+,5,Rene Almazan,Brownsville Porter,105.46,151.95,54.43,127.01,333.39,Single-ply,SBD,F
Girls,100.02+,6,Britany Rodriguez,San Benito,104.19,136.08,65.77,124.74,326.59,Single-ply,SBD,F
Girls,100.02+,7,Jasmine Sanchez,La Villa,120.47,124.74,70.31,129.27,324.32,Single-ply,SBD,F
Girls,100.02+,8,Chasity Alvarez,McAllen Rowe,107.18,117.93,56.7,111.13,285.76,Single-ply,SBD,F
Girls,100.02+,9,Grecia Quintero,Brownsville Pace,115.08,111.13,49.9,106.59,267.62,Single-ply,SBD,F
Girls,100.02+,10,Monika Morales,Edinburg Idea College Prep,108.86,43.09,34.02,72.57,149.69,Single-ply,SBD,F
Girls,100.02+,DQ,Amanda Perez #3,La Villa,103.06,,,,,Single-ply,SBD,F
Girls,100.02+,DQ,Joy Perez,Brownsville Hanna,116.75,165.56,,,,Single-ply,SBD,F
